Mini Challenge 1: 2.0 Data Preparation
…
2.3.5 Processing Content

Since we have extracted TITLE, LOCATION and PUBLISHED" from the text column and created separate columns for them ,we can exclude all the records that have the text column consisting of these content.

# removing text with TITLE:, LOCATION:, PUBLISHED:
row_numbers1=which(startsWith(raw_text$text, "TITLE"))
row_numbers2=which(startsWith(raw_text$text, "PUBLISHED"))
row_numbers3=which(startsWith(raw_text$text, " PUBLISHED"))
row_numbers4=which(startsWith(raw_text$text, "LOCATION"))
row_numbers5=which(startsWith(raw_text$text, "AUTHOR"))
raw_text=raw_text[-c(row_numbers1,row_numbers2,row_numbers3,row_numbers4,row_numbers5),]
raw_text

# A tibble: 3,015 x 6
   newsgroup  id    text            Title          Location Published 
   <chr>      <chr> <chr>           <chr>          <chr>    <date>    
 1 All News ~ 121   "Fifteen membe~ POK PROTESTS ~ ELODIS,~ 2005-04-06
 2 All News ~ 121   "When the fede~ POK PROTESTS ~ ELODIS,~ 2005-04-06
 3 All News ~ 135   "Silvia Marek,~ RALLY SCHEDUL~ ABILA, ~ 2012-04-09
 4 All News ~ 135   "\"I'm calling~ RALLY SCHEDUL~ ABILA, ~ 2012-04-09
 5 All News ~ 152   "In a glitzy p~ LACK OF DETAI~ ABILA, ~ 1993-02-02
 6 All News ~ 154   "1998/03/20"    ELODIS, KRONO~ ELODIS,~ 1998-03-20
 7 All News ~ 154   "NOTE: This ar~ ELODIS, KRONO~ ELODIS,~ 1998-03-20
 8 All News ~ 154   "This article ~ ELODIS, KRONO~ ELODIS,~ 1998-03-20
 9 All News ~ 154   "ELODIS, Krono~ ELODIS, KRONO~ ELODIS,~ 1998-03-20
10 All News ~ 154   "Two weeks pri~ ELODIS, KRONO~ ELODIS,~ 1998-03-20
# ... with 3,005 more rows
…
Now, we have to combine all the records with the same id. After processing, we now will have 845 records that reflect the 845 files that we have and each record consists of the newsgroup, id, Title, Location, Published and Content.

content=raw_text %>%
  group_by(id) %>%
  summarise_all(funs(toString(na.omit(.))))

raw_text=raw_text[,!(names(raw_text) %in% c("text"))]
raw_text$Content=content$text[match(raw_text$id,content$id)]
cleaned_text=unique(raw_text)
cleaned_text

# A tibble: 845 x 6
   newsgroup  id    Title          Location Published  Content        
   <chr>      <chr> <chr>          <chr>    <date>     <chr>          
 1 All News ~ 121   POK PROTESTS ~ ELODIS,~ 2005-04-06 "Fifteen membe~
 2 All News ~ 135   RALLY SCHEDUL~ ABILA, ~ 2012-04-09 "Silvia Marek,~
 3 All News ~ 152   LACK OF DETAI~ ABILA, ~ 1993-02-02 "In a glitzy p~
 4 All News ~ 154   ELODIS, KRONO~ ELODIS,~ 1998-03-20 "NOTE: This ar~
 5 All News ~ 237   ELODIS, KRONO~ <NA>     1998-05-15 "NOTE: This ar~
 6 All News ~ 251   ELODIS PUBLIC~ ELODIS,~ 2004-05-29 "The Elodis Co~
 7 All News ~ 341   WHO BRINGS A ~ ABILA, ~ 2013-06-21 "ABILA, Kronos~
 8 All News ~ 391   TAX MEASURE D~ ABILA, ~ 2001-03-22 "A measure to ~
 9 All News ~ 420   POK REPRESENT~ ABILA, ~ 1998-11-15 "Representativ~
10 All News ~ 554   ELIAN KAREL D~ ABILA, ~ 2009-06-20 "Elian Karel, ~
# ... with 835 more rows
…
